0|Other|0|49930880|
1|Other|0|49930880|
2|Other|0|49930880|
3|Other|0|49930880|
4|Other|0|49930880|
5|Other|0|30|
6|Other|0|31|
7|Other|0|31|
8|Other|0|32|
9|Other|0|32|
10|MethodCall|11|32|
101|Other|0|52|
102|Other|0|52|
103|Other|0|52|
104|Other|0|54|
105|Other|0|55|
106|Other|0|55|
107|Other|0|55|
108|Other|0|55|
109|Other|0|56|
110|MethodCall|111|56|
121|Other|0|58|
122|Other|0|58|
123|Other|0|58|
124|Other|0|58|
125|Other|0|58|
126|Other|0|61|
127|Other|0|62|
128|Other|0|62|
129|Other|0|62|
130|Other|0|62|
131|Other|0|63|
132|Other|0|63|
133|GetChar|0|63|H|
134|Other|0|63|
135|Other|0|63|
136|Other|0|64|
137|Other|0|64|
138|Other|0|65|
139|Other|0|65|
140|Predicate|160|65|H|
141|Other|0|65|
142|Other|0|66|
143|MethodCall|144|66|
198|Other|0|85|
199|Other|0|85|
200|Other|0|85|
201|Other|0|85|
202|Other|0|85|
203|Other|0|85|
204|Other|0|105|
205|Other|0|106|
206|Other|0|106|
207|GetChar|0|106|a|
208|Other|0|106|
209|Other|0|106|
210|Other|0|107|
211|Other|0|108|
212|Other|0|108|
213|Other|0|109|
214|Other|0|109|
215|Other|0|109|
216|Predicate|231|109|a|
217|Other|0|109|
218|Other|0|110|
219|Other|0|110|
220|Other|0|110|
221|Other|0|110|
222|Other|0|110|
223|Other|0|111|
224|Other|0|111|
225|Other|0|111|
226|Other|0|112|
227|GetChar|0|112|a|
228|Other|0|112|
229|Other|0|112|
230|Other|0|109|
214|Other|0|109|
215|Other|0|109|
216|Predicate|231|109|a|
217|Other|0|109|
218|Other|0|110|
219|Other|0|110|
220|Other|0|110|
221|Other|0|110|
222|Other|0|110|
223|Other|0|111|
224|Other|0|111|
225|Other|0|111|
226|Other|0|112|
227|GetChar|0|112|/|
228|Other|0|112|
229|Other|0|112|
230|Other|0|109|
214|Other|0|109|
215|Other|0|109|
216|Predicate|231|109|/|
217|Other|0|109|
231|Other|0|114|
232|Other|0|114|
233|Other|0|114|
234|Other|0|114|
235|Other|0|115|
236|Other|0|115|
237|Other|0|115|
238|Other|0|115|
239|Other|0|115|
240|Other|0|115|
241|Other|0|116|
242|Other|0|116|
243|Other|0|116|
244|Other|0|117|
245|Other|0|117|
144|Other|0|66|
145|Other|0|66|
146|Other|0|66|
147|Other|0|67|
148|GetChar|0|67|H|
149|Other|0|67|
150|Other|0|67|
151|Other|0|68|
152|Other|0|68|
153|Predicate|157|68|H|
154|Other|0|68|
157|Other|0|69|
160|Other|0|72|
161|Other|0|72|
111|Other|0|56|
112|Other|0|56|
113|Other|0|56|
114|Other|0|57|
115|MethodCall|116|57|
162|Other|0|72|
163|Other|0|72|
164|Other|0|72|
165|Other|0|72|
166|Other|0|75|
167|Other|0|76|
168|Other|0|76|
169|Other|0|76|
170|Other|0|76|
171|Other|0|77|
172|Other|0|77|
173|GetChar|0|77|B|
174|Other|0|77|
175|Other|0|77|
176|Other|0|78|
177|Other|0|78|
178|Predicate|196|78|B|
179|Other|0|78|
180|Other|0|79|
181|Other|0|79|
182|MethodCall|183|79|
254|Other|0|123|
255|Other|0|123|
256|Other|0|123|
257|Other|0|123|
258|Other|0|123|
259|Other|0|123|
260|Other|0|88|
261|Other|0|88|
262|Other|0|88|
263|Other|0|89|
264|Other|0|89|
265|GetChar|0|89|T|
266|Other|0|89|
267|Other|0|89|
268|Other|0|90|
269|Other|0|90|
270|Other|0|91|
271|Other|0|91|
272|Other|0|91|
273|Predicate|323|91|T|
274|Other|0|91|
275|Other|0|92|
276|Other|0|92|
277|Other|0|92|
278|Other|0|92|
279|Other|0|93|
280|MethodCall|281|93|
198|Other|0|85|
199|Other|0|85|
200|Other|0|85|
201|Other|0|85|
202|Other|0|85|
203|Other|0|85|
204|Other|0|105|
205|Other|0|106|
206|Other|0|106|
207|GetChar|0|106|b|
208|Other|0|106|
209|Other|0|106|
210|Other|0|107|
211|Other|0|108|
212|Other|0|108|
213|Other|0|109|
214|Other|0|109|
215|Other|0|109|
216|Predicate|231|109|b|
217|Other|0|109|
218|Other|0|110|
219|Other|0|110|
220|Other|0|110|
221|Other|0|110|
222|Other|0|110|
223|Other|0|111|
224|Other|0|111|
225|Other|0|111|
226|Other|0|112|
227|GetChar|0|112|b|
228|Other|0|112|
229|Other|0|112|
230|Other|0|109|
214|Other|0|109|
215|Other|0|109|
216|Predicate|231|109|b|
217|Other|0|109|
218|Other|0|110|
219|Other|0|110|
220|Other|0|110|
221|Other|0|110|
222|Other|0|110|
223|Other|0|111|
224|Other|0|111|
225|Other|0|111|
226|Other|0|112|
227|GetChar|0|112|/|
228|Other|0|112|
229|Other|0|112|
230|Other|0|109|
214|Other|0|109|
215|Other|0|109|
216|Predicate|231|109|/|
217|Other|0|109|
231|Other|0|114|
232|Other|0|114|
233|Other|0|114|
234|Other|0|114|
235|Other|0|115|
236|Other|0|115|
237|Other|0|115|
238|Other|0|115|
239|Other|0|115|
240|Other|0|115|
241|Other|0|116|
242|Other|0|116|
243|Other|0|116|
244|Other|0|117|
245|Other|0|117|
281|Other|0|93|
282|Other|0|93|
283|Other|0|93|
284|Other|0|94|
285|Other|0|94|
286|Other|0|94|
287|Other|0|95|
288|Other|0|95|
289|Other|0|95|
290|Other|0|95|
291|Other|0|95|
292|Other|0|95|
293|Other|0|95|
294|Other|0|95|
295|Other|0|95|
296|Other|0|95|
297|Other|0|95|
298|Other|0|95|
299|Other|0|96|
300|Other|0|96|
301|Other|0|96|
302|Other|0|96|
303|Other|0|96|
304|Other|0|96|
305|Other|0|96|
306|Other|0|96|
307|Other|0|96|
308|Other|0|98|
309|GetChar|0|98|T|
310|Other|0|98|
311|Other|0|98|
312|Other|0|99|
313|Other|0|99|
314|Predicate|271|99|T|
315|Other|0|99|
318|Other|0|100|
319|GetChar|0|100|T|
320|Other|0|100|
321|Other|0|100|
322|Other|0|91|
271|Other|0|91|
272|Other|0|91|
273|Predicate|323|91|T|
274|Other|0|91|
275|Other|0|92|
276|Other|0|92|
277|Other|0|92|
278|Other|0|92|
279|Other|0|93|
280|MethodCall|281|93|
198|Other|0|85|
199|Other|0|85|
200|Other|0|85|
201|Other|0|85|
202|Other|0|85|
203|Other|0|85|
204|Other|0|105|
205|Other|0|106|
206|Other|0|106|
207|GetChar|0|106|c|
208|Other|0|106|
209|Other|0|106|
210|Other|0|107|
211|Other|0|108|
212|Other|0|108|
213|Other|0|109|
214|Other|0|109|
215|Other|0|109|
216|Predicate|231|109|c|
217|Other|0|109|
218|Other|0|110|
219|Other|0|110|
220|Other|0|110|
221|Other|0|110|
222|Other|0|110|
223|Other|0|111|
224|Other|0|111|
225|Other|0|111|
226|Other|0|112|
227|GetChar|0|112|c|
228|Other|0|112|
229|Other|0|112|
230|Other|0|109|
214|Other|0|109|
215|Other|0|109|
216|Predicate|231|109|c|
217|Other|0|109|
218|Other|0|110|
219|Other|0|110|
220|Other|0|110|
221|Other|0|110|
222|Other|0|110|
223|Other|0|111|
224|Other|0|111|
225|Other|0|111|
226|Other|0|112|
227|GetChar|0|112|c|
228|Other|0|112|
229|Other|0|112|
230|Other|0|109|
214|Other|0|109|
215|Other|0|109|
216|Predicate|231|109|c|
217|Other|0|109|
218|Other|0|110|
219|Other|0|110|
220|Other|0|110|
221|Other|0|110|
222|Other|0|110|
223|Other|0|111|
224|Other|0|111|
225|Other|0|111|
226|Other|0|112|
227|GetChar|0|112|/|
228|Other|0|112|
229|Other|0|112|
230|Other|0|109|
214|Other|0|109|
215|Other|0|109|
216|Predicate|231|109|/|
217|Other|0|109|
231|Other|0|114|
232|Other|0|114|
233|Other|0|114|
234|Other|0|114|
235|Other|0|115|
236|Other|0|115|
237|Other|0|115|
238|Other|0|115|
239|Other|0|115|
240|Other|0|115|
241|Other|0|116|
242|Other|0|116|
243|Other|0|116|
244|Other|0|117|
245|Other|0|117|
281|Other|0|93|
282|Other|0|93|
283|Other|0|93|
284|Other|0|94|
285|Other|0|94|
286|Other|0|94|
287|Other|0|95|
288|Other|0|95|
289|Other|0|95|
290|Other|0|95|
291|Other|0|95|
292|Other|0|95|
293|Other|0|95|
294|Other|0|95|
295|Other|0|95|
296|Other|0|95|
297|Other|0|95|
298|Other|0|95|
299|Other|0|96|
300|Other|0|96|
301|Other|0|96|
302|Other|0|96|
303|Other|0|96|
304|Other|0|96|
305|Other|0|96|
306|Other|0|96|
307|Other|0|96|
308|Other|0|98|
309|GetChar|0|98|T|
310|Other|0|98|
311|Other|0|98|
312|Other|0|99|
313|Other|0|99|
314|Predicate|271|99|T|
315|Other|0|99|
318|Other|0|100|
319|GetChar|0|100|/|
320|Other|0|100|
321|Other|0|100|
322|Other|0|91|
271|Other|0|91|
272|Other|0|91|
273|Predicate|323|91|/|
274|Other|0|91|
323|Other|0|102|
324|Other|0|102|
325|Other|0|102|
326|Other|0|102|
327|Other|0|102|
328|Other|0|102|
329|Other|0|102|
330|Other|0|103|
183|Other|0|80|
184|GetChar|0|80|B|
185|Other|0|80|
186|Other|0|80|
187|Other|0|81|
188|Other|0|81|
189|Predicate|193|81|B|
190|Other|0|81|
193|Other|0|82|
196|Other|0|85|
197|Other|0|85|
116|Other|0|57|
117|Other|0|57|
118|Other|0|57|
119|Other|0|58|
120|Other|0|58|
11|Other|0|32|
12|Other|0|33|
13|Other|0|33|
14|Other|0|33|
15|Other|0|33|
16|Other|0|33|
17|Other|0|33|
18|Other|0|35|
19|Other|0|35|
20|Other|0|36|
21|Other|0|37|
22|Other|0|37|
23|Other|0|37|
24|Other|0|37|
25|Other|0|37|
26|Other|0|37|
27|Other|0|37|
28|Other|0|37|
29|Other|0|37|
30|Other|0|37|
31|Predicate|51|37|
32|Other|0|37|
33|Other|0|38|
34|Other|0|38|
35|Other|0|38|
36|Other|0|38|
37|Other|0|38|
38|Other|0|38|
39|Other|0|38|
40|Other|0|38|
41|Other|0|38|
42|Other|0|38|
43|Other|0|38|
44|Other|0|38|
45|Other|0|38|
46|Other|0|38|
47|Other|0|39|
48|Other|0|39|
49|Other|0|39|
50|Other|0|37|
22|Other|0|37|
23|Other|0|37|
24|Other|0|37|
25|Other|0|37|
26|Other|0|37|
27|Other|0|37|
28|Other|0|37|
29|Other|0|37|
30|Other|0|37|
31|Predicate|51|37|
32|Other|0|37|
33|Other|0|38|
34|Other|0|38|
35|Other|0|38|
36|Other|0|38|
37|Other|0|38|
38|Other|0|38|
39|Other|0|38|
40|Other|0|38|
41|Other|0|38|
42|Other|0|38|
43|Other|0|38|
44|Other|0|38|
45|Other|0|38|
46|Other|0|38|
47|Other|0|39|
48|Other|0|39|
49|Other|0|39|
50|Other|0|37|
22|Other|0|37|
23|Other|0|37|
24|Other|0|37|
25|Other|0|37|
26|Other|0|37|
27|Other|0|37|
28|Other|0|37|
29|Other|0|37|
30|Other|0|37|
31|Predicate|51|37|
32|Other|0|37|
51|Other|0|41|
52|Other|0|41|
53|Other|0|41|
54|Other|0|41|
55|Other|0|41|
56|Other|0|41|
57|Other|0|42|
58|Other|0|42|
59|Other|0|42|
60|Other|0|42|
61|Other|0|42|
62|Other|0|43|
63|Other|0|44|
64|Other|0|44|
65|Other|0|44|
66|Other|0|44|
67|Other|0|44|
68|Other|0|44|
69|Other|0|44|
70|Other|0|44|
71|Other|0|44|
72|Other|0|44|
73|Predicate|91|44|
74|Other|0|44|
75|Other|0|45|
76|Other|0|45|
77|Other|0|45|
78|Other|0|45|
79|Other|0|45|
80|Other|0|45|
81|Other|0|45|
82|Other|0|45|
83|Other|0|45|
84|Other|0|45|
85|Other|0|45|
86|Other|0|45|
87|Other|0|46|
88|Other|0|46|
89|Other|0|46|
90|Other|0|44|
64|Other|0|44|
65|Other|0|44|
66|Other|0|44|
67|Other|0|44|
68|Other|0|44|
69|Other|0|44|
70|Other|0|44|
71|Other|0|44|
72|Other|0|44|
73|Predicate|91|44|
74|Other|0|44|
75|Other|0|45|
76|Other|0|45|
77|Other|0|45|
78|Other|0|45|
79|Other|0|45|
80|Other|0|45|
81|Other|0|45|
82|Other|0|45|
83|Other|0|45|
84|Other|0|45|
85|Other|0|45|
86|Other|0|45|
87|Other|0|46|
88|Other|0|46|
89|Other|0|46|
90|Other|0|44|
64|Other|0|44|
65|Other|0|44|
66|Other|0|44|
67|Other|0|44|
68|Other|0|44|
69|Other|0|44|
70|Other|0|44|
71|Other|0|44|
72|Other|0|44|
73|Predicate|91|44|
74|Other|0|44|
91|Other|0|49|
92|Other|0|49|
93|Other|0|49|
94|Other|0|49|
95|Other|0|49|
96|Other|0|50|
97|Other|0|50|
98|Other|0|50|
99|Other|0|52|
100|Other|0|52|
